{"page":5,"total_results":7261,"total_pages":364,"results":[{"popularity":24.154,"vote_count":6196,"video":false,"poster_path":"\/7BsvSuDQuoqhWmU2fL7W2GOcZHU.jpg","id":490132,"adult":false,"backdrop_path":"\/78PjwaykLY2QqhMfWRDvmfbC6EV.jpg","original_language":"en","original_title":"Green Book","genre_ids":[35,18],"title":"Green Book","vote_average":8.3,"overview":"Tony Lip, a bouncer in 1962, is hired to drive pianist Don Shirley on a tour through the Deep South in the days when African Americans, forced to find alternate accommodations and services due to segregation laws below the Mason-Dixon Line, relied on a guide called The Negro Motorist Green Book.","release_date":"2018-11-16"},{"popularity":18.938,"vote_count":1584,"video":false,"poster_path":"\/drlyoSKDOPnxzJFrRWGqzDsyJvR.jpg","id":378064,"adult":false,"backdrop_path":"\/q5HZvtyqG8Vz39Ee9uTQbLeEml.jpg","original_language":"ja","original_title":"聲の形","genre_ids":[16,18,10749],"title":"A Silent Voice","vote_average":8.3,"overview":"Shouya Ishida starts bullying the new girl in class, Shouko Nishimiya, because she is deaf. But as the teasing continues, the rest of the class starts to turn on Shouya for his lack of compassion. When they leave elementary school, Shouko and Shouya do not speak to each other again... until an older, wiser Shouya, tormented by his past behaviour, decides he must see Shouko once more. He wants to atone for his sins, but is it already too late...?","release_date":"2016-09-17"},{"popularity":10.953,"id":895,"video":false,"vote_count":366,"vote_average":8.3,"title":"Andrei Rublev","release_date":"1966-12-16","original_language":"ru","original_title":"Андрей Рублёв","genre_ids":[18,36],"backdrop_path":"\/6nPNNvd62sAxRG0at0beusPFsIU.jpg","adult":false,"overview":"An expansive Russian drama, this film focuses on the life of revered religious icon painter Andrei Rublev. Drifting from place to place in a tumultuous era, the peace-seeking monk eventually gains a reputation for his art. But after Rublev witnesses a brutal battle and unintentionally becomes involved, he takes a vow of silence and spends time away from his work. As he begins to ease his troubled soul, he takes steps towards becoming a painter once again.","poster_path":"\/910xRIUmNJrWH2hkQifBJtoPp5R.jpg"},{"popularity":34.058,"vote_count":6936,"video":false,"poster_path":"\/tcNniniS4rfqrLH0oORikJfnIwY.jpg","id":398818,"adult":false,"backdrop_path":"\/hrMbAi9fPTmc6EtpyyAgDKznptu.jpg","original_language":"en","original_title":"Call Me by Your Name","genre_ids":[18,10749],"title":"Call Me by Your Name","vote_average":8.3,"overview":"In 1980s Italy, a relationship begins between seventeen-year-old teenage Elio and the older adult man hired as his father's research assistant.","release_date":"2017-09-01"},{"popularity":13.648,"vote_count":230,"video":false,"poster_path":"\/vHdVU0HyyB6k6kuYt8qjwTz9one.jpg","id":504253,"adult":false,"backdrop_path":"\/YLyORLsYIjC0d1TFBSpJKk7piP.jpg","original_language":"ja","original_title":"君の膵臓をたべたい","genre_ids":[16,18,10749],"title":"I Want to Eat Your Pancreas","vote_average":8.3,"overview":"Spring time in April and the last of the cherry blossoms are still in bloom. The usually aloof bookworm with no interest in others comes across a book in a hospital waiting room. Handwritten on the cover are the words: \"Living with Dying.\" He soon discovers that it is a diary kept by his very popular and genuinely cheerful classmate, Sakura Yamauchi, who reveals to him that she is secretly suffering from a pancreatic illness and only has a limited time left. It is at this moment that she gains just one more person to share her secret. Trying to maintain a normal life as much as possible, Sakura is determined to live her life to the fullest until the very last day. As her free spirit and unpredictable actions throw him for a loop, his heart begins to gradually change.","release_date":"2018-09-01"},{"popularity":17.69,"vote_count":261,"video":false,"poster_path":"\/kXj2Qrfm994yLeuADqbOieU1mUH.jpg","id":638507,"adult":false,"backdrop_path":"\/aSl3cM3sKvOTOlZBNgU4s7JdJqe.jpg","original_language":"en","original_title":"How to Train Your Dragon: Homecoming","genre_ids":[28,12,16,14,10751],"title":"How to Train Your Dragon: Homecoming","vote_average":8.3,"overview":"It's been ten years since the dragons moved to the Hidden World, and even though Toothless doesn't live in New Berk anymore, Hiccup continues the holiday traditions he once shared with his best friend. But the Vikings of New Berk were beginning to forget about their friendship with dragons. Hiccup, Astrid, and Gobber know just what to do to keep the dragons in the villagers' hearts. And across the sea, the dragons have a plan of their own...","release_date":"2019-10-25"},{"popularity":15.93,"vote_count":1077,"video":false,"poster_path":"\/2icwBom0t5nmOuZI9FVXF3gkMK0.jpg","id":470044,"adult":false,"backdrop_path":"\/5AijK8OxcTzuT8z6aEcc3kO96eG.jpg","original_language":"en","original_title":"The Hate U Give","genre_ids":[80,18],"title":"The Hate U Give","vote_average":8.3,"overview":"Raised in a poverty-stricken slum, a 16-year-old girl named Starr now attends a suburban prep school. After she witnesses a police officer shoot her unarmed best friend, she's torn between her two very different worlds as she tries to speak her truth.","release_date":"2018-10-19"},{"popularity":29.11,"id":28,"video":false,"vote_count":4861,"vote_average":8.3,"title":"Apocalypse Now","release_date":"1979-08-15","original_language":"en","original_title":"Apocalypse Now","genre_ids":[18,10752],"backdrop_path":"\/9Qs9oyn4iE8QtQjGZ0Hp2WyYNXT.jpg","adult":false,"overview":"At the height of the Vietnam war, Captain Benjamin Willard is sent on a dangerous mission that, officially, \"does not exist, nor will it ever exist.\" His goal is to locate - and eliminate - a mysterious Green Beret Colonel named Walter Kurtz, who has been leading his personal army on illegal guerrilla missions into enemy territory.","poster_path":"\/gQB8Y5RCMkv2zwzFHbUJX3kAhvA.jpg"},{"popularity":36.162,"id":105,"video":false,"vote_count":12999,"vote_average":8.3,"title":"Back to the Future","release_date":"1985-07-03","original_language":"en","original_title":"Back to the Future","genre_ids":[12,35,878,10751],"backdrop_path":"\/fq3wyOs1RHyz2yfzsb4sck7aWRG.jpg","adult":false,"overview":"Eighties teenager Marty McFly is accidentally sent back in time to 1955, inadvertently disrupting his parents' first meeting and attracting his mother's romantic interest. Marty must repair the damage to history by rekindling his parents' romance and - with the help of his eccentric inventor friend Doc Brown - return to 1985.","poster_path":"\/7lyBcpYB0Qt8gYhXYaEZUNlNQAv.jpg"},{"popularity":69.234,"vote_count":18013,"video":false,"poster_path":"\/7WsyChQLEftFiDOVTGkv3hFpyyt.jpg","id":299536,"adult":false,"backdrop_path":"\/lmZFxXgJE3vgrciwuDib0N8CfQo.jpg","original_language":"en","original_title":"Avengers: Infinity War","genre_ids":[28,12,878],"title":"Avengers: Infinity War","vote_average":8.3,"overview":"As the Avengers and their allies have continued to protect the world from threats too large for any one hero to handle, a new danger has emerged from the cosmic shadows: Thanos. A despot of intergalactic infamy, his goal is to collect all six Infinity Stones, artifacts of unimaginable power, and use them to inflict his twisted will on all of reality. Everything the Avengers have fought for has led up to this moment - the fate of Earth and existence itself has never been more uncertain.","release_date":"2018-04-25"},{"popularity":12.655,"vote_count":1142,"video":false,"poster_path":"\/95zlq13ql7d5V6TEMRRYilTmTOp.jpg","id":284,"adult":false,"backdrop_path":"\/1HSgkvoOyr47cSNKgDLbRYhEoMq.jpg","original_language":"en","original_title":"The Apartment","genre_ids":[35,18,10749],"title":"The Apartment","vote_average":8.3,"overview":"Bud Baxter is a minor clerk in a huge New York insurance company, until he discovers a quick way to climb the corporate ladder. He lends out his apartment to the executives as a place to take their mistresses. Although he often has to deal with the aftermath of their visits, one night he's left with a major problem to solve.","release_date":"1960-06-21"},{"popularity":15.355,"vote_count":1215,"video":false,"poster_path":"\/7ZiSTZN5FWsphVmlwFVFfn5EOl.jpg","id":5156,"adult":false,"backdrop_path":"\/loNjs84HrviWIyHNYMNfLKHkon0.jpg","original_language":"it","original_title":"Ladri di biciclette","genre_ids":[18],"title":"Bicycle Thieves","vote_average":8.3,"overview":"Antonio, an unemployed man in the depressed post-WWII economy of Italy, at last finds a good job hanging up posters, the only requirement for which is that he must have his own bicycle. When Antonio’s bicycle is stolen, he and his son are forced to walk the streets of Rome in search of it, or else face ruin.","release_date":"1948-11-24"},{"popularity":35.314,"vote_count":12296,"video":false,"poster_path":"\/sKCr78MXSLixwmZ8DyJLrpMsd15.jpg","id":8587,"adult":false,"backdrop_path":"\/aQqa2v4bjaVS0oDwLc4stHfpXwb.jpg","original_language":"en","original_title":"The Lion King","genre_ids":[16,18,10751],"title":"The Lion King","vote_average":8.3,"overview":"A young lion prince is cast out of his pride by his cruel uncle, who claims he killed his father. While the uncle rules with an iron paw, the prince grows up beyond the Savannah, living by a philosophy: No worries for the rest of your days. But when his past comes to haunt him, the young prince must decide his fate: Will he remain an outcast or face his demons and become what he needs to be?","release_date":"1994-05-07"},{"popularity":9.381,"vote_count":402,"video":false,"poster_path":"\/1G9r3rqtbFAQuyWKOZm4Y5J5s7Q.jpg","id":992,"adult":false,"backdrop_path":"\/v2SCnNZDZ7USonAWnsGtL4PUqHt.jpg","original_language":"en","original_title":"Sherlock Jr.","genre_ids":[28,35,9648],"title":"Sherlock Jr.","vote_average":8.2,"overview":"A film projectionist longs to be a detective, and puts his meagre skills to work when he is framed by a rival for stealing his girlfriend's father's pocketwatch.","release_date":"1924-04-17"},{"popularity":24.893,"vote_count":11683,"video":false,"poster_path":"\/w7WxNbb0mcWpwDMd3pJA7LQRfnt.jpg","id":77338,"adult":false,"backdrop_path":"\/s7sGkUh7mjF15VR1ZdRABtMtGyk.jpg","original_language":"fr","original_title":"Intouchables","genre_ids":[35,18],"title":"The Intouchables","vote_average":8.2,"overview":"A true story of two men who should never have met – a quadriplegic aristocrat who was injured in a paragliding accident and a young man from the projects.","release_date":"2011-11-02"},{"popularity":14.662,"vote_count":2395,"video":false,"poster_path":"\/bSqt9rhDZx1Q7UZ86dBPKdNomp2.jpg","id":1585,"adult":false,"backdrop_path":"\/whxy3UQrbHswzXH6jfH7IGAIjLa.jpg","original_language":"en","original_title":"It's a Wonderful Life","genre_ids":[18,14,10751],"title":"It's a Wonderful Life","vote_average":8.2,"overview":"A holiday favourite for generations...  George Bailey has spent his entire life giving to the people of Bedford Falls.  All that prevents rich skinflint Mr. Potter from taking over the entire town is George's modest building and loan company.  But on Christmas Eve the business's $8,000 is lost and George's troubles begin.","release_date":"1946-12-20"},{"popularity":10.667,"vote_count":1081,"video":false,"poster_path":"\/drgMcyTsySQBnUPGaBThCHGdlWT.jpg","id":10098,"adult":false,"backdrop_path":"\/qxUd8WgfkKIoxlmKFWTjddAOJDz.jpg","original_language":"en","original_title":"The Kid","genre_ids":[35,18],"title":"The Kid","vote_average":8.2,"overview":"A tramp cares for a boy after he's abandoned as a newborn by his mother. Later the mother has a change of heart and aches to be reunited with her son.","release_date":"1921-01-21"},{"popularity":26.68,"vote_count":4732,"video":false,"poster_path":"\/pJDwwpHZHcghvyQ7BPtVObxvfBP.jpg","id":670,"adult":false,"backdrop_path":"\/47rioCQJLDe6gT7NYdPf7IRy3Nu.jpg","original_language":"ko","original_title":"올드보이","genre_ids":[28,18,9648,53],"title":"Oldboy","vote_average":8.2,"overview":"With no clue how he came to be imprisoned, drugged and tortured for 15 years, a desperate businessman seeks revenge on his captors.","release_date":"2003-11-21"},{"popularity":17.091,"id":490,"video":false,"vote_count":1520,"vote_average":8.2,"title":"The Seventh Seal","release_date":"1957-02-16","original_language":"sv","original_title":"Det sjunde inseglet","genre_ids":[14,18],"backdrop_path":"\/d9VUlRTovsGbwkUjNR2OGOGrQuO.jpg","adult":false,"overview":"When disillusioned Swedish knight Antonius Block returns home from the Crusades to find his country in the grips of the Black Death, he challenges Death to a chess match for his life. Tormented by the belief that God does not exist, Block sets off on a journey, meeting up with traveling players Jof and his wife, Mia, and becoming determined to evade Death long enough to commit one redemptive act while he still lives.","poster_path":"\/wcZ21zrOsy0b52AfAF50XpTiv75.jpg"},{"popularity":13.249,"vote_count":1281,"video":false,"poster_path":"\/nqqovhsvsWbsb7LcGaIGDRZrwgB.jpg","id":110420,"adult":false,"backdrop_path":"\/dOm1TXcyFknZjt4BtDT2Y8R00lf.jpg","original_language":"ja","original_title":"おおかみこどもの雨と雪","genre_ids":[16,18,14,10751],"title":"Wolf Children","vote_average":8.2,"overview":"After her werewolf lover unexpectedly dies in an accident, a woman must find a way to raise the son and daughter that she had with him. However, their inheritance of their father's traits prove to be a challenge for her.","release_date":"2012-07-21"}]}